{
    "msg": {
        "id": "str1234",
        "body": "xxx",
        "from": "str1234@xxx.com.br",
        "fromName": "str1234",
        "subject": "str1234",
        "params":[
            { "id":"123", "value":"123" }
            , { "id":"123", "value":"123" }
        ],
        "emails":[
            {"id":"123", "name":"123"}
            , {"id":"123", "name":"123"}
            , {"id":"123", "name":"123",
                "params":[
                    { "id":"123", "value":"123" }
                    ,{ "id":"123", "value":"123" }
                ]
            }
        ]
    }
}